 [{
  "title": "Beginning Swift 2",
  "description": "Learn about Apple’s brand new programming language, Swift, through hands-on examples! This series is primarily intended for those who have some prior programming experience and are looking to get up-to-speed quickly with Swift 2. This series requires use of Xcode 7. If you are completely new to programming, this series may go a bit too fast for you. If this is the case for you, I recommend going through part 1 of our iOS Apprentice series, which you can get for free by signing up to our site newsletter.",
  "author": "Greg",
  "videos":
  [{
   "title": "Series Introduction",
   "length": "3:28"
   },
   {
   "title": "Playgrounds",
   "length": "10:14"
   },
   {
   "title": "Variables & Constants",
   "length": "9:00"
   },
   {
   "title": "Control Flow & Scope",
   "length": "9:27"
   },
   {
   "title": "Functions",
   "length": "9:00"
   },
   {
   "title": "Optionals",
   "length": "10:42"
   },
   {
   "title": "Structs",
   "length": "8:52"
   },
   {
   "title": "Arrays & Sets",
   "length": "9:58"
   },
   {
   "title": "Dictionaries",
   "length": "9:48"
   },
   {
   "title": "Classes",
   "length": "13:18"
   },
   {
   "title": "Enumerations",
   "length": "9:35"
   },
   {
   "title": "Conclusion",
   "length": "5:13"
   }]
  },
  {
  "title": "Intermediate Swift 2",
  "description": "Intermediate Swift picks up where the last Swift series concluded. This series covers some of the meatier parts of the language including generics, protocols, the type system, and the new error handling system introduced in Swift 2. By the end of it, you should have all the tools necessary to write rather complex apps. If you are new to the Swift, you should watch the previous series before watching this one.",
  "author": "Greg",
  "videos":
  [{
   "title": "Series Introduction",
   "length": "3:22"
   },
   {
   "title": "Properties",
   "length": "8:53"
   },
   {
   "title": "Optionals",
   "length": "9:51"
   },
   {
   "title": "Methods",
   "length": "8:14"
   },
   {
   "title": "Closures",
   "length": "9:40"
   },
   {
   "title": "Protocols",
   "length": "8:31"
   },
   {
   "title": "Inheritance & Extensions",
   "length": "12:52"
   },
   {
   "title": "Generics",
   "length": "10:52"
   },
   {
   "title": "Instance Lifecycle",
   "length": "9:38"
   },
   {
   "title": "Type System",
   "length": "7:39"
   },
   {
   "title": "Error Handling",
   "length": "10:53"
   },
   {
   "title": "Conclusion",
   "length": "4:41"
   }]
  },
  {
  "title": "iOS 101 with Swift 2",
  "description": "This series walks you through making your first few iOS apps, and covers the most important concepts you’ll use in the video tutorials to come; things like Storyboards, Auto Layout, common UIKit controls, and more. This series uses Swift 2 and is an update to our older iOS 101 series.",
  "author": "Brian",
  "videos":
  [{
   "title": "Series Introduction",
   "length": "5:03"
   },
   {
   "title": "App Structure",
   "length": "11:40"
   },
   {
   "title": "Interface Builder",
   "length": "11:29"
   },
   {
   "title": "Common UIKit Controls",
   "length": "9:39"
   },
   {
   "title": "Storyboards and Segues",
   "length": "13:24"
   },
   {
   "title": "Beginning Auto Layout",
   "length": "9:46"
   },
   {
   "title": "Stack Views",
   "length": "5:36"
   },
   {
   "title": "Table Views",
   "length": "7:55"
   },
   {
   "title": "Navigation View Controllers",
   "length": "6:04"
   },
   {
   "title": "Touch Control",
   "length": "8:04"
   },
   {
   "title": "Cameras and Pickers",
   "length": "7:03"
   },
   {
   "title": "Conclusion",
   "length": "4:00"
   }]
  },
  {
  "title": "Auto Layout",
  "description": "Auto Layout is a technology that was released in iOS 6 that allows you to build your layouts for different screen sizes and orientations. This series walks you through the basics of layouts in both Interface Builder and code. While the subject matter is complex, it is designed for beginners and assumes no knowledge of Auto Layout.",
  "author": "Jerry",
  "videos":
  [{
   "title": "Series Introduction",
   "length": "5:10"
   },
   {
   "title": "Interface Builder and Auto Layout I",
   "length": "18:35"
   },
   {
   "title": "Interface Builder and Auto Layout II",
   "length": "18:48"
   },
   {
   "title": "Editing Constraints",
   "length": "14:12"
   },
   {
   "title": "Constraint Relations & Priorities",
   "length": "14:21"
   },
   {
   "title": "Intrinsic Content Size",
   "length": "10:28"
   },
   {
   "title": "Constraints in Code",
   "length": "12:48"
   },
   {
   "title": "UILayoutGuide and NSLayoutAnchor",
   "length": "15:46"
   },
   {
   "title": "Visual Format Language",
   "length": "12:59"
   },
   {
   "title": "Debugging Auto Layout",
   "length": "13:19"
   },
   {
   "title": "Animating Constraints",
   "length": "5:03"
   },
   {
   "title": "Conclusion",
   "length": "3:15"
   }]
  },
]